<?xml version="1.0" encoding="utf-8"?>
<!-- Generator: Adobe Illustrator 19.1.0, SVG Export Plug-In . SVG Version: 6.00 Build 0)  -->
<svg version="1.1" id="Layer_1" xmlns="http://www.w3.org/2000/svg" xmlns:xlink="http://www.w3.org/1999/xlink" x="0px" y="0px"
	 viewBox="0 0 100 100" style="enable-background:new 0 0 100 100;" xml:space="preserve">
<style type="text/css">
	.st0{fill-rule:evenodd;clip-rule:evenodd;fill:#69B8D6;}
	.st1{fill:#69B8D6;}
	.st2{fill:none;stroke:#69B8D6;stroke-width:8;stroke-miterlimit:10;}
	.st3{fill:none;stroke:#69B8D6;stroke-width:8;stroke-linecap:round;stroke-miterlimit:10;}
	.st4{fill:none;stroke:#69B8D6;stroke-width:7;stroke-linecap:round;stroke-miterlimit:10;}
</style>
<path class="st0" d="M90,9.2c5.5,0,7.8,3.9,5,8.7L55,87.2c-2.8,4.8-7.2,4.8-10,0L5,17.9c-2.8-4.8-0.5-8.7,5-8.7H90z"/>
</svg>
