<?xml version="1.0" encoding="utf-8"?>
<!-- Generator: Adobe Illustrator 19.1.0, SVG Export Plug-In . SVG Version: 6.00 Build 0)  -->
<svg version="1.1" id="Layer_1" xmlns="http://www.w3.org/2000/svg" xmlns:xlink="http://www.w3.org/1999/xlink" x="0px" y="0px"
	 viewBox="0 0 100 100" style="enable-background:new 0 0 100 100;" xml:space="preserve">
<style type="text/css">
	.st0{fill-rule:evenodd;clip-rule:evenodd;fill:#69b8d6;}
	.st1{fill:#69b8d6;}
	.st2{fill:none;stroke:#69b8d6;stroke-width:8;stroke-miterlimit:10;}
	.st3{fill:none;stroke:#69b8d6;stroke-width:8;stroke-linecap:round;stroke-miterlimit:10;}
	.st4{fill:none;stroke:#69b8d6;stroke-width:7;stroke-linecap:round;stroke-miterlimit:10;}
</style>
<line class="st3" x1="5" y1="5" x2="95" y2="95"/>
<line class="st3" x1="5" y1="95" x2="95" y2="5"/>
</svg>
