<?xml version="1.0" encoding="utf-8"?>
<!-- Generator: Adobe Illustrator 19.1.0, SVG Export Plug-In . SVG Version: 6.00 Build 0)  -->
<svg version="1.1" id="Layer_1" xmlns="http://www.w3.org/2000/svg" xmlns:xlink="http://www.w3.org/1999/xlink" x="0px" y="0px"
	 viewBox="0 0 100 100" style="enable-background:new 0 0 100 100;" xml:space="preserve">
<style type="text/css">
	.st0{fill-rule:evenodd;clip-rule:evenodd;fill:#69B8D6;}
	.st1{fill:#69B8D6;}
	.st2{fill:none;stroke:#69B8D6;stroke-width:8;stroke-miterlimit:10;}
	.st3{fill:none;stroke:#69B8D6;stroke-width:8;stroke-linecap:round;stroke-miterlimit:10;}
	.st4{fill:none;stroke:#69B8D6;stroke-width:7;stroke-linecap:round;stroke-miterlimit:10;}
	.st5{fill:#69B8D6;}
	.st6{fill:#69B8D6;}
</style>
<g>
	<circle class="st5" cx="78.2" cy="32.9" r="8.1"/>
	<path class="st6" d="M94.4,11H5.6C2.5,11,0,13.5,0,16.6v66.8C0,86.5,2.5,89,5.6,89h88.9c3.1,0,5.6-2.5,5.6-5.6V16.6C100,13.5,97.5,11,94.4,11z
		 M92.6,62.5l-17-15c-2.2-2.2-5.7-2.2-7.9,0l-8.9,8.9l0,0L48.6,66.7c-0.8,0.8-2.1,0.8-2.9,0s-0.8-2.1,0-2.9l10.2-10.2L34.7,32.3
		c-2.2-2.2-5.7-2.2-7.9,0L7.4,49.7V18.5h85.2V62.5z"/>
</g>
</svg>
