<?xml version="1.0" encoding="utf-8"?>
<!-- Generator: Adobe Illustrator 19.1.0, SVG Export Plug-In . SVG Version: 6.00 Build 0)  -->
<svg version="1.1" id="Layer_1" xmlns="http://www.w3.org/2000/svg" xmlns:xlink="http://www.w3.org/1999/xlink" x="0px" y="0px"
	 viewBox="0 0 100 100" style="enable-background:new 0 0 100 100;" xml:space="preserve">
<style type="text/css">
	.st0{fill-rule:evenodd;clip-rule:evenodd;fill:#231F20;}
	.st1{fill:#231F20;}
	.st2{fill:none;stroke:#231F20;stroke-width:8;stroke-miterlimit:10;}
	.st3{fill:none;stroke:#231F20;stroke-width:8;stroke-linecap:round;stroke-miterlimit:10;}
	.st4{fill:none;stroke:#231F20;stroke-width:7;stroke-linecap:round;stroke-miterlimit:10;}
</style>
<path class="st0" d="M30,40.8c-2.8,0-3.9-1.9-2.5-4.3l20-34.6c1.4-2.4,3.6-2.4,5,0l20,34.6c1.4,2.4,0.2,4.3-2.5,4.3H30z"/>
<path class="st0" d="M70,59.2c2.8,0,3.9,1.9,2.5,4.3l-20,34.6c-1.4,2.4-3.6,2.4-5,0l-20-34.6c-1.4-2.4-0.2-4.3,2.5-4.3H70z"/>
</svg>
