<?xml version="1.0" encoding="UTF-8" standalone="no"?>
<svg width="22px" height="22px" viewBox="0 0 22 22" version="1.1" xmlns="http://www.w3.org/2000/svg" xmlns:xlink="http://www.w3.org/1999/xlink">
    <!-- Generator: Sketch 39.1 (31720) - http://www.bohemiancoding.com/sketch -->
    <title>View Comment Button</title>
    <desc>Created with Sketch.</desc>
    <defs>
        <path d="M0,3.9927317 C0,1.78760687 1.80035233,0 4.00955791,0 L17.9904421,0 C20.2048598,0 22,1.79339407 22,3.9927317 L22,12.3289466 C22,14.5340715 20.2121108,16.3216783 18.0086857,16.3216783 L11.5996194,16.3216783 L5.82490227,22 L5.82490234,16.3216783 L3.99784866,16.3216783 C1.78989781,16.3216783 0,14.5282843 0,12.3289466 L0,3.9927317 Z" id="path-1"></path>
        <mask id="mask-2" maskContentUnits="userSpaceOnUse" maskUnits="objectBoundingBox" x="0" y="0" width="22" height="22" fill="white">
            <use xlink:href="#path-1"></use>
        </mask>
    </defs>
    <g id="Dashboard" stroke="none" stroke-width="1" fill="none" fill-rule="evenodd">
        <use id="View-Comment-Button" stroke="#69B8D6" mask="url(#mask-2)" stroke-width="2" xlink:href="#path-1"></use>
    </g>
</svg>