<?xml version="1.0" encoding="utf-8"?>
<!-- Generator: Adobe Illustrator 19.2.1, SVG Export Plug-In . SVG Version: 6.00 Build 0)  -->
<svg version="1.1" id="Layer_1" xmlns="http://www.w3.org/2000/svg" xmlns:xlink="http://www.w3.org/1999/xlink" x="0px" y="0px"
	 viewBox="0 0 176 176" style="enable-background:new 0 0 176 176;" xml:space="preserve">
<style type="text/css">
	.st0{opacity:0.5;}
	.st1{clip-path:url(#SVGID_2_);}
	.st2{clip-path:url(#SVGID_6_);}
	.st3{fill:#69B0CE;}
	.st4{fill-rule:evenodd;clip-rule:evenodd;fill:#FFFFFF;}
	.st5{fill:#FFFFFF;}
	.st6{fill:#ccc;}
	.st7{fill:#69B8D6;}
	.st8{fill-rule:evenodd;clip-rule:evenodd;fill:#69ABC9;}
	.st9{fill-rule:evenodd;clip-rule:evenodd;fill:#231F20;}
	.st10{fill:#AD0030;}
	.st11{fill:#69B4D2;}
	.st12{fill:#69B5D3;}
	.st13{fill:#69B7D5;}
	.st14{fill:#52BAB1;}
	.st15{fill:none;stroke:#69B5D3;stroke-width:2;stroke-linecap:round;stroke-miterlimit:10;}
</style>
<image style="overflow:visible;opacity:0.75;" width="177" height="177" transform="matrix(0.9944 0 0 0.9944 0 0)">
</image>
<g>
	<circle class="st6" cx="88" cy="88" r="63.6"/>
</g>
<g>
	<polygon class="st5" points="83.6,105.5 82.1,104.1 97.5,87.8 82.1,71.5 83.6,70.1 100.2,87.8 	"/>
</g>
</svg>
